EESchema Schematic File Version 2
LIBS:ab2_7segment
LIBS:ab2_audio
LIBS:ab2_buffer
LIBS:ab2_capacitor
LIBS:ab2_connectivity
LIBS:ab2_dac
LIBS:ab2_diode
LIBS:ab2_gpio_expansion
LIBS:ab2_header
LIBS:ab2_idc
LIBS:ab2_inductor
LIBS:ab2_input_devices
LIBS:ab2_jumper
LIBS:ab2_lcd
LIBS:ab2_led
LIBS:ab2_pot
LIBS:ab2_power
LIBS:ab2_regulator
LIBS:ab2_relay
LIBS:ab2_resistor
LIBS:ab2_sensor
LIBS:ab2_stepper
LIBS:ab2_supply
LIBS:ab2_terminal_block
LIBS:ab2_test
LIBS:ab2_transistor
LIBS:ab2_uC
LIBS:ab2_usb
LIBS:ab2_xtal
LIBS:74xx
LIBS:adc-dac
LIBS:analog_switches
LIBS:atmel
LIBS:audio
LIBS:cmos4000
LIBS:conn
LIBS:contrib
LIBS:cypress
LIBS:device
LIBS:digital-audio
LIBS:display
LIBS:dsp
LIBS:intel
LIBS:interface
LIBS:linear
LIBS:memory
LIBS:microchip
LIBS:microcontrollers
LIBS:motorola
LIBS:opto
LIBS:philips
LIBS:power
LIBS:regul
LIBS:siliconi
LIBS:special
LIBS:texas
LIBS:transistors
LIBS:valves
LIBS:xilinx
LIBS:zasilacz-cache
EELAYER 24 0
EELAYER END
$Descr A4 11693 8268
encoding utf-8
Sheet 1 1
Title ""
Date ""
Rev ""
Comp ""
Comment1 ""
Comment2 ""
Comment3 ""
Comment4 ""
$EndDescr
$Comp
L BARREL_JACK CON1
U 1 1 53C40BF5
P 1450 1170
F 0 "CON1" H 1450 1420 60  0000 C CNN
F 1 "BARREL_JACK" H 1450 970 60  0000 C CNN
F 2 "" H 1450 1170 60  0000 C CNN
F 3 "" H 1450 1170 60  0000 C CNN
	1    1450 1170
	1    0    0    -1  
$EndComp
$Comp
L C C3
U 1 1 53C40CE7
P 2350 1270
F 0 "C3" H 2350 1370 40  0000 L CNN
F 1 "C" H 2356 1185 40  0000 L CNN
F 2 "" H 2388 1120 30  0000 C CNN
F 3 "" H 2350 1270 60  0000 C CNN
	1    2350 1270
	1    0    0    -1  
$EndComp
$Comp
L LM317T U1
U 1 1 53C40E02
P 2870 1120
F 0 "U1" H 2670 1320 40  0000 C CNN
F 1 "LM317T" H 2870 1320 40  0000 L CNN
F 2 "TO-220" H 2870 1220 30  0000 C CIN
F 3 "" H 2870 1120 60  0000 C CNN
	1    2870 1120
	1    0    0    -1  
$EndComp
$Comp
L LM7805CT U2
U 1 1 53C40EC6
P 4850 1120
F 0 "U2" H 4650 1320 40  0000 C CNN
F 1 "LM7805CT" H 4850 1320 40  0000 L CNN
F 2 "TO-220" H 4850 1220 30  0000 C CIN
F 3 "" H 4850 1120 60  0000 C CNN
	1    4850 1120
	1    0    0    -1  
$EndComp
$Comp
L NCP1117ST33T3G U3
U 1 1 53C4110B
P 6460 1120
F 0 "U3" H 6460 1370 40  0000 C CNN
F 1 "NCP1117ST33T3G" H 6460 1320 40  0000 C CNN
F 2 "" H 6460 1120 60  0000 C CNN
F 3 "" H 6460 1120 60  0000 C CNN
	1    6460 1120
	1    0    0    -1  
$EndComp
$Comp
L C C6
U 1 1 53C412F3
P 4110 1270
F 0 "C6" H 4110 1370 40  0000 L CNN
F 1 "C" H 4116 1185 40  0000 L CNN
F 2 "" H 4148 1120 30  0000 C CNN
F 3 "" H 4110 1270 60  0000 C CNN
	1    4110 1270
	1    0    0    -1  
$EndComp
$Comp
L C C8
U 1 1 53C41382
P 5730 1270
F 0 "C8" H 5730 1370 40  0000 L CNN
F 1 "C" H 5736 1185 40  0000 L CNN
F 2 "" H 5768 1120 30  0000 C CNN
F 3 "" H 5730 1270 60  0000 C CNN
	1    5730 1270
	1    0    0    -1  
$EndComp
$Comp
L C C2
U 1 1 53C42761
P 2140 1270
F 0 "C2" H 2140 1370 40  0000 L CNN
F 1 "C" H 2146 1185 40  0000 L CNN
F 2 "" H 2178 1120 30  0000 C CNN
F 3 "" H 2140 1270 60  0000 C CNN
	1    2140 1270
	1    0    0    -1  
$EndComp
$Comp
L C C5
U 1 1 53C428F8
P 3850 1270
F 0 "C5" H 3850 1370 40  0000 L CNN
F 1 "C" H 3856 1185 40  0000 L CNN
F 2 "" H 3888 1120 30  0000 C CNN
F 3 "" H 3850 1270 60  0000 C CNN
	1    3850 1270
	1    0    0    -1  
$EndComp
$Comp
L C C9
U 1 1 53C429AB
P 5940 1270
F 0 "C9" H 5940 1370 40  0000 L CNN
F 1 "C" H 5946 1185 40  0000 L CNN
F 2 "" H 5978 1120 30  0000 C CNN
F 3 "" H 5940 1270 60  0000 C CNN
	1    5940 1270
	1    0    0    -1  
$EndComp
$Comp
L CAPAPOL C1
U 1 1 53C42AFA
P 1940 1270
F 0 "C1" H 1990 1370 40  0000 L CNN
F 1 "CAPAPOL" H 1990 1170 40  0000 L CNN
F 2 "" H 2040 1120 30  0000 C CNN
F 3 "" H 1940 1270 300 0000 C CNN
	1    1940 1270
	1    0    0    -1  
$EndComp
$Comp
L CAPAPOL C4
U 1 1 53C42F42
P 3570 1270
F 0 "C4" H 3620 1370 40  0000 L CNN
F 1 "CAPAPOL" H 3620 1170 40  0000 L CNN
F 2 "" H 3670 1120 30  0000 C CNN
F 3 "" H 3570 1270 300 0000 C CNN
	1    3570 1270
	1    0    0    -1  
$EndComp
$Comp
L CAPAPOL C7
U 1 1 53C435DF
P 5530 1270
F 0 "C7" H 5580 1370 40  0000 L CNN
F 1 "CAPAPOL" H 5580 1170 40  0000 L CNN
F 2 "" H 5630 1120 30  0000 C CNN
F 3 "" H 5530 1270 300 0000 C CNN
	1    5530 1270
	1    0    0    -1  
$EndComp
$Comp
L R R1
U 1 1 53C43B92
P 3180 1370
F 0 "R1" V 3260 1370 40  0000 C CNN
F 1 "R" V 3187 1371 40  0000 C CNN
F 2 "" V 3110 1370 30  0000 C CNN
F 3 "" H 3180 1370 30  0000 C CNN
	1    3180 1370
	0    1    1    0   
$EndComp
$Comp
L R R2
U 1 1 53C44055
P 2650 1410
F 0 "R2" V 2730 1410 40  0000 C CNN
F 1 "R" V 2657 1411 40  0000 C CNN
F 2 "" V 2580 1410 30  0000 C CNN
F 3 "" H 2650 1410 30  0000 C CNN
	1    2650 1410
	0    1    1    0   
$EndComp
$Comp
L CONN_2 P3
U 1 1 53C443BA
P 1850 630
F 0 "P3" V 1800 630 40  0000 C CNN
F 1 "CONN_2" V 1900 630 40  0000 C CNN
F 2 "" H 1850 630 60  0000 C CNN
F 3 "" H 1850 630 60  0000 C CNN
	1    1850 630 
	0    -1   -1   0   
$EndComp
$Comp
L CONN_2 P1
U 1 1 53C451F9
P 3860 610
F 0 "P1" V 3810 610 40  0000 C CNN
F 1 "CONN_2" V 3910 610 40  0000 C CNN
F 2 "" H 3860 610 60  0000 C CNN
F 3 "" H 3860 610 60  0000 C CNN
	1    3860 610 
	0    -1   -1   0   
$EndComp
$Comp
L CONN_2 P2
U 1 1 53C4532F
P 5730 610
F 0 "P2" V 5680 610 40  0000 C CNN
F 1 "CONN_2" V 5780 610 40  0000 C CNN
F 2 "" H 5730 610 60  0000 C CNN
F 3 "" H 5730 610 60  0000 C CNN
	1    5730 610 
	0    -1   -1   0   
$EndComp
$Comp
L CAPAPOL C10
U 1 1 53C457DD
P 6980 1270
F 0 "C10" H 7030 1370 40  0000 L CNN
F 1 "CAPAPOL" H 7030 1170 40  0000 L CNN
F 2 "" H 7080 1120 30  0000 C CNN
F 3 "" H 6980 1270 300 0000 C CNN
	1    6980 1270
	1    0    0    -1  
$EndComp
$Comp
L C C11
U 1 1 53C45858
P 7190 1270
F 0 "C11" H 7190 1370 40  0000 L CNN
F 1 "C" H 7196 1185 40  0000 L CNN
F 2 "" H 7228 1120 30  0000 C CNN
F 3 "" H 7190 1270 60  0000 C CNN
	1    7190 1270
	1    0    0    -1  
$EndComp
$Comp
L C C12
U 1 1 53C4590B
P 7390 1270
F 0 "C12" H 7390 1370 40  0000 L CNN
F 1 "C" H 7396 1185 40  0000 L CNN
F 2 "" H 7428 1120 30  0000 C CNN
F 3 "" H 7390 1270 60  0000 C CNN
	1    7390 1270
	1    0    0    -1  
$EndComp
$Comp
L LED D3
U 1 1 53C46182
P 4430 1730
F 0 "D3" H 4430 1830 50  0000 C CNN
F 1 "LED" H 4430 1630 50  0000 C CNN
F 2 "" H 4430 1730 60  0000 C CNN
F 3 "" H 4430 1730 60  0000 C CNN
	1    4430 1730
	0    1    1    0   
$EndComp
$Comp
L LED D2
U 1 1 53C46575
P 5340 1720
F 0 "D2" H 5340 1820 50  0000 C CNN
F 1 "LED" H 5340 1620 50  0000 C CNN
F 2 "" H 5340 1720 60  0000 C CNN
F 3 "" H 5340 1720 60  0000 C CNN
	1    5340 1720
	0    1    1    0   
$EndComp
$Comp
L LED D1
U 1 1 53C4682F
P 7690 1070
F 0 "D1" H 7690 1170 50  0000 C CNN
F 1 "LED" H 7690 970 50  0000 C CNN
F 2 "" H 7690 1070 60  0000 C CNN
F 3 "" H 7690 1070 60  0000 C CNN
	1    7690 1070
	1    0    0    -1  
$EndComp
$Comp
L R R5
U 1 1 53C46B28
P 4200 1780
F 0 "R5" V 4280 1780 40  0000 C CNN
F 1 "R" V 4207 1781 40  0000 C CNN
F 2 "" V 4130 1780 30  0000 C CNN
F 3 "" H 4200 1780 30  0000 C CNN
	1    4200 1780
	1    0    0    -1  
$EndComp
$Comp
L R R3
U 1 1 53C4760B
P 7730 1470
F 0 "R3" V 7810 1470 40  0000 C CNN
F 1 "R" V 7737 1471 40  0000 C CNN
F 2 "" V 7660 1470 30  0000 C CNN
F 3 "" H 7730 1470 30  0000 C CNN
	1    7730 1470
	0    1    1    0   
$EndComp
NoConn ~ 1750 1170
$Comp
L R R4
U 1 1 53C473A0
P 5020 1770
F 0 "R4" V 5100 1770 40  0000 C CNN
F 1 "R" V 5027 1771 40  0000 C CNN
F 2 "" V 4950 1770 30  0000 C CNN
F 3 "" H 5020 1770 30  0000 C CNN
	1    5020 1770
	1    0    0    -1  
$EndComp
Wire Wire Line
	3270 1070 4450 1070
Connection ~ 3570 1070
Connection ~ 3850 1070
Connection ~ 4110 1070
Wire Wire Line
	2870 1370 2930 1370
Wire Wire Line
	2900 1410 2900 1370
Connection ~ 2900 1370
Wire Wire Line
	3430 1370 3430 1070
Connection ~ 3430 1070
Wire Wire Line
	1750 1070 1750 980 
Wire Wire Line
	1940 980  2470 980 
Connection ~ 1950 980 
Connection ~ 2140 980 
Wire Wire Line
	2470 980  2470 1070
Connection ~ 2350 980 
Wire Wire Line
	1750 1270 1830 1270
Wire Wire Line
	1830 1270 1830 1470
Wire Wire Line
	1830 1470 7480 1470
Connection ~ 1940 1470
Wire Wire Line
	2400 1470 2400 1410
Connection ~ 2350 1470
Connection ~ 2140 1470
Connection ~ 3850 1470
Connection ~ 2400 1470
Connection ~ 3570 1470
Connection ~ 4110 1470
Wire Wire Line
	5250 1070 6060 1070
Connection ~ 5530 1070
Connection ~ 5730 1070
Connection ~ 5940 1070
Connection ~ 5530 1470
Connection ~ 5730 1470
Connection ~ 5940 1470
Wire Wire Line
	6060 960  6060 780 
Wire Wire Line
	6060 780  6980 780 
Wire Wire Line
	6980 780  6980 1070
Wire Wire Line
	6860 1070 7490 1070
Connection ~ 6980 1470
Connection ~ 7190 1470
Connection ~ 6980 1070
Connection ~ 7190 1070
Wire Wire Line
	4200 2030 4430 2030
Wire Wire Line
	4430 2030 4430 1930
Wire Wire Line
	4200 1530 4200 1470
Connection ~ 4200 1470
Wire Wire Line
	4430 1530 4430 1070
Connection ~ 4430 1070
Connection ~ 7390 1070
Connection ~ 7390 1470
Wire Wire Line
	7980 1470 7980 1070
Wire Wire Line
	7980 1070 7890 1070
Wire Wire Line
	5020 2020 5340 2020
Wire Wire Line
	5340 2020 5340 1920
Wire Wire Line
	1940 1070 1940 980 
Wire Wire Line
	2140 1070 2140 980 
Wire Wire Line
	2350 1070 2350 980 
Wire Wire Line
	5340 1520 5340 1070
Connection ~ 5340 1070
Connection ~ 5020 1470
Wire Wire Line
	6530 1370 6530 1470
Connection ~ 6530 1470
Wire Wire Line
	5020 1520 5020 1470
Wire Wire Line
	4850 1370 4850 1470
Connection ~ 4850 1470
$Comp
L PWR_FLAG #FLG01
U 1 1 53C4CC80
P 4550 1430
F 0 "#FLG01" H 4550 1525 30  0001 C CNN
F 1 "PWR_FLAG" H 4550 1610 30  0000 C CNN
F 2 "" H 4550 1430 60  0000 C CNN
F 3 "" H 4550 1430 60  0000 C CNN
	1    4550 1430
	1    0    0    -1  
$EndComp
Wire Wire Line
	4550 1430 4550 1470
Connection ~ 4550 1470
Wire Wire Line
	6460 1370 6530 1370
Wire Wire Line
	5630 960  5420 960 
Wire Wire Line
	5420 960  5420 1470
Connection ~ 5420 1470
Wire Wire Line
	5830 960  6060 960 
Wire Wire Line
	3960 960  3960 1070
Connection ~ 3960 1070
Wire Wire Line
	3760 960  3760 1010
Wire Wire Line
	3760 1010 4370 1010
Wire Wire Line
	4370 1010 4370 770 
Wire Wire Line
	4370 770  5290 770 
Wire Wire Line
	5290 770  5290 1070
Connection ~ 5290 1070
$EndSCHEMATC
